Delving into the Determinants of Making it to University in South America
…
#adding ethnicity labels to dataframe 
eth_prop_df_long <- eth_prop_df_long %>%
  mutate(eth_lab = case_when(
    ethnicity == 1 ~ "White",
    ethnicity == 2 ~ "Mestizo",
    ethnicity == 3 ~ "Indigenous",
    ethnicity == 4 ~ "Mulata",
    ethnicity == 5 ~ "Black",
    ethnicity == 7 ~ "Other",
    is.na(ethnicity) ~ "No Data"
  ))

eth_prop_df_long 

# A tibble: 70 × 4
   country_name ethnicity percent eth_lab   
   <fct>        <chr>       <dbl> <chr>     
 1 Argentina    1          47.3   White     
 2 Argentina    2          33.5   Mestizo   
 3 Argentina    3           1.82  Indigenous
 4 Argentina    4           0.260 Mulata    
 5 Argentina    5           2.99  Black     
 6 Argentina    7           7.73  Other     
 7 Argentina    NA          6.43  <NA>      
 8 Bolivia      1          10.2   White     
 9 Bolivia      2          59.1   Mestizo   
10 Bolivia      3          12.6   Indigenous
# ℹ 60 more rows
…
  #educ_lab = factor(educ_lab, levels = c("None", "Primary School Incomplete", "Primary School Complete", "High-school Incomplete", "High-school Complete", "Tertiary/University Incomplete", "Tertiary/University Complete", "No Data")))

educ_prop_df_long 

# A tibble: 80 × 4
   country_name educ_score percent educ_lab                      
   <fct>        <chr>        <dbl> <chr>                         
 1 Argentina    0           0.584  None                          
 2 Argentina    1           5.32   Primary School Incomplete     
 3 Argentina    2          13.0    Primary School Complete       
 4 Argentina    3          23.1    High-school Incomplete        
 5 Argentina    4          27.6    High-school Complete          
 6 Argentina    5          15.9    Tertiary/University Incomplete
 7 Argentina    6          14.5    Tertiary/University Complete  
 8 Argentina    NA          0.0649 <NA>                          
 9 Bolivia      0           1.11   None                          
10 Bolivia      1          12.5    Primary School Incomplete     
# ℹ 70 more rows
…
